RISC-V_Load_Store_Unit/sim/lsu_tb.vcd
$date
	Wed Mar  4 22:22:30 2026
$end
$version
	Icarus Verilog
$end
$timescale
	1ps
$end
$scope module lsu_tb $end
$var wire 1 ! lb_full $end
$var wire 1 " mem_req_ready $end
$var wire 1 # mem_resp_error $end
$var wire 1 $ sb_full $end
$var wire 1 % mem_resp_valid $end
$var wire 32 & mem_resp_rdata [31:0] $end
$var wire 1 ' mem_req_we $end
$var wire 32 ( mem_req_wdata [31:0] $end
$var wire 1 ) mem_req_valid $end
$var wire 4 * mem_req_be [3:0] $end
$var wire 32 + mem_req_addr [31:0] $end
$var wire 1 , lsu_busy $end
$var wire 1 - cpu_resp_valid $end
$var wire 32 . cpu_resp_rdata [31:0] $end
$var wire 5 / cpu_resp_rd [4:0] $end
$var wire 4 0 cpu_resp_exc_code [3:0] $end
$var wire 1 1 cpu_resp_error $end
$var wire 1 2 cpu_req_ready $end
$var parameter 32 3 CLK_PERIOD $end
$var parameter 32 4 TEST_TIMEOUT $end
$var reg 1 5 clk $end
$var reg 1 6 commit $end
$var reg 32 7 cpu_req_base_addr [31:0] $end
$var reg 3 8 cpu_req_funct3 [2:0] $end
$var reg 12 9 cpu_req_offset [11:0] $end
$var reg 5 : cpu_req_rd [4:0] $end
$var reg 1 ; cpu_req_valid $end
$var reg 32 < cpu_req_wdata [31:0] $end
$var reg 1 = cpu_req_we $end
$var reg 1 > cpu_resp_ready $end
$var reg 1 ? flush $end
$var reg 1 @ rst_n $end
$var integer 32 A fail_count [31:0] $end
$var integer 32 B pass_count [31:0] $end
$var integer 32 C test_count [31:0] $end
$scope module u_data_mem $end
$var wire 1 5 clk $end
$var wire 1 " req_ready_o $end
$var wire 1 # resp_error_o $end
$var wire 1 @ rst_n $end
$var wire 12 D word_addr [11:0] $end
$var wire 1 % resp_valid_o $end
$var wire 32 E resp_rdata_o [31:0] $end
$var wire 1 ' req_we_i $end
$var wire 32 F req_wdata_i [31:0] $end
$var wire 1 ) req_valid_i $end
$var wire 4 G req_be_i [3:0] $end
$var wire 32 H req_addr_i [31:0] $end
$var parameter 32 I DEPTH $end
$var parameter 0 J INIT_FILE $end
$var parameter 32 K LATENCY $end
$var reg 32 L read_data [31:0] $end
$scope begin gen_zero_latency $end
$upscope $end
$scope begin $ivl_for_loop7 $end
$var integer 32 M i [31:0] $end
$upscope $end
$scope task dump_memory $end
$scope begin $ivl_for_loop10 $end
$scope begin $unm_blk_75 $end
$upscope $end
$upscope $end
$upscope $end
$upscope $end
$scope module u_dut $end
$var wire 32 N active_load_data [31:0] $end
$var wire 1 5 clk $end
$var wire 1 6 commit_i $end
$var wire 32 O cpu_req_base_addr_i [31:0] $end
$var wire 3 P cpu_req_funct3_i [2:0] $end
$var wire 12 Q cpu_req_offset_i [11:0] $end
$var wire 5 R cpu_req_rd_i [4:0] $end
$var wire 1 ; cpu_req_valid_i $end
$var wire 32 S cpu_req_wdata_i [31:0] $end
$var wire 1 = cpu_req_we_i $end
$var wire 1 > cpu_resp_ready_i $end
$var wire 1 ? flush_i $end
$var wire 1 ! load_buffer_full_o $end
$var wire 4 T mem_req_be_o [3:0] $end
$var wire 1 " mem_req_ready_i $end
$var wire 32 U mem_req_wdata_o [31:0] $end
$var wire 1 # mem_resp_error_i $end
$var wire 32 V mem_resp_rdata_i [31:0] $end
$var wire 1 % mem_resp_valid_i $end
$var wire 1 @ rst_n $end
$var wire 12 W sign_ext_offset [11:0] $end
$var wire 1 $ store_buffer_full_o $end
$var wire 1 ' mem_req_we_o $end
$var wire 1 ) mem_req_valid_o $end
$var wire 32 X mem_req_addr_o [31:0] $end
$var wire 1 , lsu_busy_o $end
$var wire 32 Y eff_addr [31:0] $end
$var wire 1 2 cpu_req_ready_o $end
$var reg 4 Z byte_enable [3:0] $end
$var reg 1 1 cpu_resp_error_o $end
$var reg 4 [ cpu_resp_exc_code_o [3:0] $end
$var reg 5 \ cpu_resp_rd_o [4:0] $end
$var reg 32 ] cpu_resp_rdata_o [31:0] $end
$var reg 1 - cpu_resp_valid_o $end
$var reg 1 ^ is_aligned $end
$var reg 8 _ load_byte [7:0] $end
$var reg 32 ` load_data_extended [31:0] $end
$var reg 32 a load_data_reg [31:0] $end
$var reg 16 b load_half [15:0] $end
$var reg 2 c mem_size [1:0] $end
$var reg 3 d next_state [2:0] $end
$var reg 32 e req_addr_r [31:0] $end
$var reg 4 f req_be_r [3:0] $end
$var reg 3 g req_funct3_r [2:0] $end
$var reg 1 ' req_is_store_r $end
$var reg 5 h req_rd_r [4:0] $end
$var reg 32 i req_wdata_r [31:0] $end
$var reg 32 j shifted_store_data [31:0] $end
$var reg 3 k state [2:0] $end
$upscope $end
$scope task check_result $end
$upscope $end
$scope task load_byte $end
$upscope $end
$scope task load_halfword $end
$upscope $end
$scope task load_word $end
$upscope $end
$scope task reset_dut $end
$upscope $end
$scope task store_byte $end
$upscope $end
$scope task store_halfword $end
$upscope $end
$scope task store_word $end
$upscope $end
$scope task test_address_offset $end
$upscope $end
$scope task test_basic_word_access $end
$upscope $end
$scope task test_byte_access $end
$upscope $end
$scope task test_halfword_access $end
$upscope $end
$scope task test_multiple_operations $end
$upscope $end
$upscope $end
$enddefinitions $end
$comment Show the parameter values. $end
$dumpall
b0 K
b J
b1000000000000 I
b10011100010000 4
b1010 3
$end
#0
$dumpvars
b0 k
b0 j
b0 i
b0 h
b0 g
b0 f
b0 e
b0 d
b0 c
b0 b
b0 a
b0 `
b0 _
1^
b0 ]
b0 \
b0 [
b1 Z
b0 Y
b0 X
b0 W
b0 V
b0 U
b0 T
b0 S
b0 R
b0 Q
b0 P
b0 O
b0 N
b1000000000000 M
b0 L
b0 H
b0 G
b0 F
b0 E
b0 D
b0 C
b0 B
b0 A
0@
0?
1>
0=
b0 <
0;
b0 :
b0 9
b0 8
b0 7
06
05
12
01
b0 0
b0 /
b0 .
0-
0,
b0 +
b0 *
0)
b0 (
0'
b0 &
0%
0$
0#
1"
0!
$end
#5000
15
#10000
05
#15000
15
#20000
05
#25000
15
#30000
05
#35000
15
#40000
05
#45000
1@
15
#50000
05
#55000
15
#60000
05
#65000
15
#70000
05
#75000
b1111 Z
b10 c
b11011110101011011011111011101111 j
b1 d
b10 8
b10 P
b11011110101011011011111011101111 <
b11011110101011011011111011101111 S
b100000000 Y
b100000000 7
b100000000 O
1=
1;
15
#80000
05
#85000
b100000000 D
b10 d
0;
b1111 *
b1111 G
b1111 T
b1111 f
b10 g
b11011110101011011011111011101111 (
b11011110101011011011111011101111 F
b11011110101011011011111011101111 U
b11011110101011011011111011101111 i
b100000000 +
b100000000 H
b100000000 X
b100000000 e
1'
02
1,
b1 k
15
#90000
05
#95000
b0 d
1)
b10 k
15
#100000
05
#105000
b11011110101011011011111011101111 &
b11011110101011011011111011101111 E
b11011110101011011011111011101111 V
b11011110101011011011111011101111 L
b1 d
b1 :
b1 R
0=
1;
12
0)
0,
b0 k
15
#110000
05
#115000
b10 d
0;
02
1,
b1 k
b1 h
0'
15
#120000
05
#125000
b100 d
1%
1)
b10 k
15
#130000
05
#135000
b1 /
b1 \
b11011110101011011011111011101111 .
b11011110101011011011111011101111 ]
1-
b0 d
0%
b11011110101011011011111011101111 `
b1011111011101111 b
b11101111 _
0)
b100 k
b11011110101011011011111011101111 N
b11011110101011011011111011101111 a
15
#140000
05
#145000
b0 /
b0 \
b0 .
b0 ]
0-
12
0,
b0 k
b1 B
b1 C
15
#150000
05
#155000
b11001010111111101011101010111110 j
b1 d
b11001010111111101011101010111110 <
b11001010111111101011101010111110 S
b100000100 Y
b100000100 7
b100000100 O
1=
1;
15
#160000
05
#165000
b0 &
b0 E
b0 V
b0 L
b100000100 D
b10 d
0;
b11001010111111101011101010111110 (
b11001010111111101011101010111110 F
b11001010111111101011101010111110 U
b11001010111111101011101010111110 i
b100000100 +
b100000100 H
b100000100 X
b100000100 e
1'
02
1,
b1 k
15
#170000
05
#175000
b0 d
1)
b10 k
15
#180000
05
#185000
b11001010111111101011101010111110 &
b11001010111111101011101010111110 E
b11001010111111101011101010111110 V
b11001010111111101011101010111110 L
b1 d
b10 :
b10 R
0=
1;
12
0)
0,
b0 k
15
#190000
05
#195000
b10 d
0;
02
1,
b1 k
b10 h
0'
15
#200000
05
#205000
b100 d
1%
1)
b10 k
15
#210000
05
#215000
b10 /
b10 \
b11001010111111101011101010111110 .
b11001010111111101011101010111110 ]
1-
b0 d
0%
b11001010111111101011101010111110 `
b1011101010111110 b
b10111110 _
0)
b100 k
b11001010111111101011101010111110 N
b11001010111111101011101010111110 a
15
#220000
05
#225000
b0 /
b0 \
b0 .
b0 ]
0-
12
0,
b0 k
b10 B
b10 C
15
#230000
05
#235000
b1 Z
b0 c
b10101010101010101010101010101010 j
b1 d
b0 8
b0 P
b10101010 <
b10101010 S
b1000000000 Y
b1000000000 7
b1000000000 O
1=
1;
15
#240000
05
#245000
b0 &
b0 E
b0 V
b0 L
b1000000000 D
b11111111111111111111111110111110 `
b10 d
0;
b1 *
b1 G
b1 T
b1 f
b0 g
b10101010101010101010101010101010 (
b10101010101010101010101010101010 F
b10101010101010101010101010101010 U
b10101010101010101010101010101010 i
b1000000000 +
b1000000000 H
b1000000000 X
b1000000000 e
1'
02
1,
b1 k
15
#250000
05
#255000
b0 d
1)
b10 k
15
#260000
05
#265000
b10101010 &
b10101010 E
b10101010 V
b10101010 L
b10111011101110111011101110111011 j
b10 Z
b1 d
b10111011 <
b10111011 S
b1000000001 Y
b1000000001 7
b1000000001 O
1;
12
0)
0,
b0 k
15
#270000
05
#275000
b11111111111111111111111110111010 `
b10 d
b10111010 _
0;
02
1,
b1 k
b10 *
b10 G
b10 T
b10 f
b10111011101110111011101110111011 (
b10111011101110111011101110111011 F
b10111011101110111011101110111011 U
b10111011101110111011101110111011 i
b1000000001 +
b1000000001 H
b1000000001 X
b1000000001 e
15
#280000
05
#285000
b0 d
1)
b10 k
15
#290000
05
#295000
b1011101110101010 &
b1011101110101010 E
b1011101110101010 V
b1011101110101010 L
b11001100110011001100110011001100 j
b100 Z
b1 d
b11001100 <
b11001100 S
b1000000010 Y
b1000000010 7
b1000000010 O
1;
12
0)
0,
b0 k
15
#300000
05
#305000
b11111111111111111111111111111110 `
b1100101011111110 b
b11111110 _
b10 d
0;
b100 *
b100 G
b100 T
b100 f
b11001100110011001100110011001100 (
b11001100110011001100110011001100 F
b11001100110011001100110011001100 U
b11001100110011001100110011001100 i
b1000000010 +
b1000000010 H
b1000000010 X
b1000000010 e
02
1,
b1 k
15
#310000
05
#315000
b0 d
1)
b10 k
15
#320000
05
#325000
b110011001011101110101010 &
b110011001011101110101010 E
b110011001011101110101010 V
b110011001011101110101010 L
b11011101110111011101110111011101 j
b1000 Z
b1 d
b11011101 <
b11011101 S
b1000000011 Y
b1000000011 7
b1000000011 O
1;
12
0)
0,
b0 k
15
#330000
05
#335000
b11111111111111111111111111001010 `
b10 d
b11001010 _
0;
02
1,
b1 k
b1000 *
b1000 G
b1000 T
b1000 f
b11011101110111011101110111011101 (
b11011101110111011101110111011101 F
b11011101110111011101110111011101 U
b11011101110111011101110111011101 i
b1000000011 +
b1000000011 H
b1000000011 X
b1000000011 e
15
#340000
05
#345000
b0 d
1)
b10 k
15
#350000
05
#355000
b11011101 j
b11011101110011001011101110101010 &
b11011101110011001011101110101010 E
b11011101110011001011101110101010 V
b11011101110011001011101110101010 L
b10 c
b1111 Z
b1 d
b11 :
b11 R
b10 8
b10 P
b1000000000 Y
b1000000000 7
b1000000000 O
0=
1;
12
0)
0,
b0 k
15
#360000
05
#365000
b11001010111111101011101010111110 `
b1011101010111110 b
b10111110 _
b10 d
0;
b1111 *
b1111 G
b1111 T
b1111 f
b11 h
b10 g
b11011101 (
b11011101 F
b11011101 U
b11011101 i
b1000000000 +
b1000000000 H
b1000000000 X
b1000000000 e
0'
02
1,
b1 k
15
#370000
05
#375000
b100 d
1%
1)
b10 k
15
#380000
05
#385000
b11011101110011001011101110101010 `
b1011101110101010 b
b10101010 _
b11 /
b11 \
b11011101110011001011101110101010 .
b11011101110011001011101110101010 ]
1-
b0 d
0%
b11011101110011001011101110101010 N
b11011101110011001011101110101010 a
0)
b100 k
15
#390000
05
#395000
b0 /
b0 \
b0 .
b0 ]
0-
12
0,
b0 k
b11 B
b11 C
15
#400000
05
#405000
b11011101110111011101110111011101 j
b1 Z
b0 c
b1 d
b100 :
b100 R
b0 8
b0 P
1;
15
#410000
05
#415000
b10 d
b11111111111111111111111110101010 `
0;
02
1,
b1 k
b1 *
b1 G
b1 T
b1 f
b100 h
b0 g
b11011101110111011101110111011101 (
b11011101110111011101110111011101 F
b11011101110111011101110111011101 U
b11011101110111011101110111011101 i
15
#420000
05
#425000
b100 d
1%
1)
b10 k
15
#430000
05
#435000
b100 /
b100 \
b11111111111111111111111110101010 .
b11111111111111111111111110101010 ]
1-
b0 d
0%
0)
b100 k
15
#440000
05
#445000
b0 /
b0 \
b0 .
b0 ]
0-
12
0,
b0 k
b100 B
b100 C
15
#450000
05
#455000
b1111111011111110111111101111111 j
b1 d
b1111111 <
b1111111 S
b1000010000 Y
b1000010000 7
b1000010000 O
1=
1;
15
#460000
05
#465000
b0 &
b0 E
b0 V
b0 L
b1000010000 D
b10 d
0;
b1111111011111110111111101111111 (
b1111111011111110111111101111111 F
b1111111011111110111111101111111 U
b1111111011111110111111101111111 i
b1000010000 +
b1000010000 H
b1000010000 X
b1000010000 e
1'
02
1,
b1 k
15
#470000
05
#475000
b0 d
1)
b10 k
15
#480000
05
#485000
b1111111 &
b1111111 E
b1111111 V
b1111111 L
b1 d
b101 :
b101 R
0=
1;
12
0)
0,
b0 k
15
#490000
05
#495000
b10 d
0;
02
1,
b1 k
b101 h
0'
15
#500000
05
#505000
b100 d
1%
1)
b10 k
15
#510000
05
#515000
b101 /
b101 \
b1111111 .
b1111111 ]
1-
b0 d
0%
b1111111 `
b1111111 b
b1111111 _
0)
b100 k
b1111111 N
b1111111 a
15
#520000
05
#525000
b0 /
b0 \
b0 .
b0 ]
0-
12
0,
b0 k
b101 B
b101 C
15
#530000
05
#535000
b11 Z
b1 c
b10010001101000001001000110100 j
b1 d
b1 8
b1 P
b1001000110100 <
b1001000110100 S
b1100000000 Y
b1100000000 7
b1100000000 O
1=
1;
15
#540000
05
#545000
b0 &
b0 E
b0 V
b0 L
b1100000000 D
b10 d
0;
b11 *
b11 G
b11 T
b11 f
b1 g
b10010001101000001001000110100 (
b10010001101000001001000110100 F
b10010001101000001001000110100 U
b10010001101000001001000110100 i
b1100000000 +
b1100000000 H
b1100000000 X
b1100000000 e
1'
02
1,
b1 k
15
#550000
05
#555000
b0 d
1)
b10 k
15
#560000
05
#565000
b1001000110100 &
b1001000110100 E
b1001000110100 V
b1001000110100 L
b1010110011110000101011001111000 j
b1100 Z
b1 d
b101011001111000 <
b101011001111000 S
b1100000010 Y
b1100000010 7
b1100000010 O
1;
12
0)
0,
b0 k
15
#570000
05
#575000
b0 `
b10 d
b0 b
b0 _
0;
02
1,
b1 k
b1100 *
b1100 G
b1100 T
b1100 f
b1010110011110000101011001111000 (
b1010110011110000101011001111000 F
b1010110011110000101011001111000 U
b1010110011110000101011001111000 i
b1100000010 +
b1100000010 H
b1100000010 X
b1100000010 e
15
#580000
05
#585000
b0 d
1)
b10 k
15
#590000
05
#595000
b101011001111000 j
b1010110011110000001001000110100 &
b1010110011110000001001000110100 E
b1010110011110000001001000110100 V
b1010110011110000001001000110100 L
b10 c
b1111 Z
b1 d
b110 :
b110 R
b10 8
b10 P
b1100000000 Y
b1100000000 7
b1100000000 O
0=
1;
12
0)
0,
b0 k
15
#600000
05
#605000
b1111111 `
b1111111 b
b1111111 _
b10 d
0;
b1111 *
b1111 G
b1111 T
b1111 f
b110 h
b10 g
b101011001111000 (
b101011001111000 F
b101011001111000 U
b101011001111000 i
b1100000000 +
b1100000000 H
b1100000000 X
b1100000000 e
0'
02
1,
b1 k
15
#610000
05
#615000
b100 d
1%
1)
b10 k
15
#620000
05
#625000
b1010110011110000001001000110100 `
b1001000110100 b
b110100 _
b110 /
b110 \
b1010110011110000001001000110100 .
b1010110011110000001001000110100 ]
1-
b0 d
0%
b1010110011110000001001000110100 N
b1010110011110000001001000110100 a
0)
b100 k
15
#630000
05
#635000
b0 /
b0 \
b0 .
b0 ]
0-
12
0,
b0 k
b110 B
b110 C
15
#640000
05
#645000
b1010110011110000101011001111000 j
b11 Z
b1 c
b1 d
b111 :
b111 R
b1 8
b1 P
1;
15
#650000
05
#655000
b10 d
b1001000110100 `
0;
02
1,
b1 k
b11 *
b11 G
b11 T
b11 f
b111 h
b1 g
b1010110011110000101011001111000 (
b1010110011110000101011001111000 F
b1010110011110000101011001111000 U
b1010110011110000101011001111000 i
15
#660000
05
#665000
b100 d
1%
1)
b10 k
15
#670000
05
#675000
b111 /
b111 \
b1001000110100 .
b1001000110100 ]
1-
b0 d
0%
0)
b100 k
15
#680000
05
#685000
b0 /
b0 \
b0 .
b0 ]
0-
12
0,
b0 k
b111 B
b111 C
15
#690000
05
#695000
b11111111111111111111111111111111 j
b1 d
b1111111111111111 <
b1111111111111111 S
b1100010000 Y
b1100010000 7
b1100010000 O
1=
1;
15
#700000
05
#705000
b0 &
b0 E
b0 V
b0 L
b1100010000 D
b10 d
0;
b11111111111111111111111111111111 (
b11111111111111111111111111111111 F
b11111111111111111111111111111111 U
b11111111111111111111111111111111 i
b1100010000 +
b1100010000 H
b1100010000 X
b1100010000 e
1'
02
1,
b1 k
15
#710000
05
#715000
b0 d
1)
b10 k
15
#720000
05
#725000
b1111111111111111 &
b1111111111111111 E
b1111111111111111 V
b1111111111111111 L
b1 d
b1000 :
b1000 R
0=
1;
12
0)
0,
b0 k
15
#730000
05
#735000
b10 d
0;
02
1,
b1 k
b1000 h
0'
15
#740000
05
#745000
b100 d
1%
1)
b10 k
15
#750000
05
#755000
b1000 /
b1000 \
b11111111111111111111111111111111 .
b11111111111111111111111111111111 ]
1-
b0 d
0%
b11111111111111111111111111111111 `
b1111111111111111 b
b11111111 _
0)
b100 k
b1111111111111111 N
b1111111111111111 a
15
#760000
05
#765000
b0 /
b0 \
b0 .
b0 ]
0-
12
0,
b0 k
b1000 B
b1000 C
15
#770000
05
#775000
b1111 Z
b10 c
b10001000100010010001000100010 j
b1 d
b10 8
b10 P
b10001000100010010001000100010 <
b10001000100010010001000100010 S
b10000000000 Y
b10000000000 7
b10000000000 O
1=
1;
15
#780000
05
#785000
b0 &
b0 E
b0 V
b0 L
b10000000000 D
b1111111111111111 `
b10 d
0;
b1111 *
b1111 G
b1111 T
b1111 f
b10 g
b10001000100010010001000100010 (
b10001000100010010001000100010 F
b10001000100010010001000100010 U
b10001000100010010001000100010 i
b10000000000 +
b10000000000 H
b10000000000 X
b10000000000 e
1'
02
1,
b1 k
15
#790000
05
#795000
b0 d
b1001 :
b1001 R
b10000 W
b10000 9
b10000 Q
b10000000000 Y
b1111110000 7
b1111110000 O
0=
1;
1)
b10 k
15
#800000
05
#805000
b10001000100010010001000100010 &
b10001000100010010001000100010 E
b10001000100010010001000100010 V
b10001000100010010001000100010 L
b1 d
12
0)
0,
b0 k
15
#810000
05
#815000
b10 d
0;
02
1,
b1 k
b1001 h
0'
15
#820000
05
#825000
b100 d
1%
1)
b10 k
15
#830000
05
#835000
b1001 /
b1001 \
b10001000100010010001000100010 .
b10001000100010010001000100010 ]
1-
b0 d
0%
b10001000100010010001000100010 `
b10001000100010 b
b100010 _
0)
b100 k
b10001000100010010001000100010 N
b10001000100010010001000100010 a
15
#840000
05
#845000
b0 /
b0 \
b0 .
b0 ]
0-
12
0,
b0 k
b1001 B
b1001 C
15
#850000
05
#855000
b1 j
b1 d
b1 <
b1 S
b0 W
b0 9
b0 Q
b10100000000 Y
b10100000000 7
b10100000000 O
1=
1;
15
#860000
05
#865000
b0 &
b0 E
b0 V
b0 L
b10100000000 D
b10 d
0;
b1 (
b1 F
b1 U
b1 i
b10100000000 +
b10100000000 H
b10100000000 X
b10100000000 e
1'
02
1,
b1 k
15
#870000
05
#875000
b0 d
1)
b10 k
15
#880000
05
#885000
b1 &
b1 E
b1 V
b1 L
b10 j
b1 d
b10 <
b10 S
b10100000100 Y
b10100000100 7
b10100000100 O
1;
12
0)
0,
b0 k
15
#890000
05
#895000
b0 &
b0 E
b0 V
b0 L
b10100000100 D
b10 d
0;
02
1,
b1 k
b10 (
b10 F
b10 U
b10 i
b10100000100 +
b10100000100 H
b10100000100 X
b10100000100 e
15
#900000
05
#905000
b0 d
1)
b10 k
15
#910000
05
#915000
b10 &
b10 E
b10 V
b10 L
b11 j
b1 d
b11 <
b11 S
b10100001000 Y
b10100001000 7
b10100001000 O
1;
12
0)
0,
b0 k
15
#920000
05
#925000
b0 &
b0 E
b0 V
b0 L
b10100001000 D
b10 d
0;
b11 (
b11 F
b11 U
b11 i
b10100001000 +
b10100001000 H
b10100001000 X
b10100001000 e
02
1,
b1 k
15
#930000
05
#935000
b0 d
1)
b10 k
15
#940000
05
#945000
b11 &
b11 E
b11 V
b11 L
b100 j
b1 d
b100 <
b100 S
b10100001100 Y
b10100001100 7
b10100001100 O
1;
12
0)
0,
b0 k
15
#950000
05
#955000
b0 &
b0 E
b0 V
b0 L
b10100001100 D
b10 d
0;
02
1,
b1 k
b100 (
b100 F
b100 U
b100 i
b10100001100 +
b10100001100 H
b10100001100 X
b10100001100 e
15
#960000
05
#965000
b0 d
1)
b10 k
15
#970000
05
#975000
b100 &
b100 E
b100 V
b100 L
b1 d
b1010 :
b1010 R
b10100000000 Y
b10100000000 7
b10100000000 O
0=
1;
12
0)
0,
b0 k
15
#980000
05
#985000
b1 &
b1 E
b1 V
b1 L
b10100000000 D
b10 d
0;
b1010 h
b10100000000 +
b10100000000 H
b10100000000 X
b10100000000 e
0'
02
1,
b1 k
15
#990000
05
#995000
b100 d
1%
1)
b10 k
15
#1000000
05
#1005000
b1 `
b1 b
b1 _
b1010 /
b1010 \
b1 .
b1 ]
1-
b0 d
0%
b1 N
b1 a
0)
b100 k
15
#1010000
05
#1015000
b0 /
b0 \
b0 .
b0 ]
0-
12
0,
b0 k
b1010 B
b1010 C
15
#1020000
05
#1025000
b1 d
b1011 :
b1011 R
b10100000100 Y
b10100000100 7
b10100000100 O
1;
15
#1030000
05
#1035000
b10 &
b10 E
b10 V
b10 L
b10100000100 D
b10 d
0;
02
1,
b1 k
b1011 h
b10100000100 +
b10100000100 H
b10100000100 X
b10100000100 e
15
#1040000
05
#1045000
b100 d
1%
1)
b10 k
15
#1050000
05
#1055000
b1011 /
b1011 \
b10 .
b10 ]
1-
b0 d
0%
b10 `
b10 b
b10 _
0)
b100 k
b10 N
b10 a
15
#1060000
05
#1065000
b0 /
b0 \
b0 .
b0 ]
0-
12
0,
b0 k
b1011 B
b1011 C
15
#1070000
05
#1075000
b1 d
b1100 :
b1100 R
b10100001000 Y
b10100001000 7
b10100001000 O
1;
15
#1080000
05
#1085000
b11 &
b11 E
b11 V
b11 L
b10100001000 D
b10 d
0;
b1100 h
b10100001000 +
b10100001000 H
b10100001000 X
b10100001000 e
02
1,
b1 k
15
#1090000
05
#1095000
b100 d
1%
1)
b10 k
15
#1100000
05
#1105000
b11 `
b11 b
b11 _
b1100 /
b1100 \
b11 .
b11 ]
1-
b0 d
0%
b11 N
b11 a
0)
b100 k
15
#1110000
05
#1115000
b0 /
b0 \
b0 .
b0 ]
0-
12
0,
b0 k
b1100 B
b1100 C
15
#1120000
05
#1125000
b1 d
b1101 :
b1101 R
b10100001100 Y
b10100001100 7
b10100001100 O
1;
15
#1130000
05
#1135000
b100 &
b100 E
b100 V
b100 L
b10100001100 D
b10 d
0;
02
1,
b1 k
b1101 h
b10100001100 +
b10100001100 H
b10100001100 X
b10100001100 e
15
#1140000
05
#1145000
b100 d
1%
1)
b10 k
15
#1150000
05
#1155000
b1101 /
b1101 \
b100 .
b100 ]
1-
b0 d
0%
b100 `
b100 b
b100 _
0)
b100 k
b100 N
b100 a
15
#1160000
05
#1165000
b0 /
b0 \
b0 .
b0 ]
0-
12
0,
b0 k
b1101 B
b1101 C
15
